[35m[Appium][39m Welcome to Appium v1.16.0
[35m[Appium][39m Non-default server args:
[35m[Appium][39m   port: 9478
[35m[Appium][39m   loglevel: info
[35m[Appium][39m   chromeDriverPort: 9480
[35m[Appium][39m   tmpDir: C:\Users\City\AppData\Local\Temp\\Katalon\Appium\Temp1584441654612
[35m[Appium][39m Appium REST http interface listener started on 0.0.0.0:9478
[35m[HTTP][39m [37m-->[39m [37mGET[39m [37m/wd/hub/status[39m
[35m[HTTP][39m [90m{}[39m
[35m[HTTP][39m [37m<-- GET /wd/hub/status [39m[32m200[39m [90m6 ms - 68[39m
[35m[HTTP][39m [90m[39m
[35m[HTTP][39m [37m-->[39m [37mPOST[39m [37m/wd/hub/session[39m
[35m[HTTP][39m [90m{"desiredCapabilities":{"app":"E:\\MAGANG_QA_DEXA\\iFocus\\iFocus_dexa\\app\\hotfix_Ifocus_227_bookmark_dev.apk","noReset":true,"deviceName":"Xiaomi MI 8 Lite (Android 9)","fullReset":false,"platform":"ANDROID","newCommandTimeout":1800,"platformVersion":"9","automationName":"uiautomator2","autoGrantPermissions":true,"platformName":"Android","udid":"6cba90d","systemPort":9477},"capabilities":{"firstMatch":[{"appium:app":"E:\\MAGANG_QA_DEXA\\iFocus\\iFocus_dexa\\app\\hotfix_Ifocus_227_bookmark_dev.apk","appium:autoGrantPermissions":true,"appium:automationName":"uiautomator2","appium:deviceName":"Xiaomi MI 8 Lite (Android 9)","appium:fullReset":false,"appium:newCommandTimeout":1800,"appium:noReset":true,"platform":"ANDROID","platformName":"android","appium:platformVersion":"9","appium:systemPort":9477,"appium:udid":"6cba90d"}]}}[39m
[35m[BaseDriver][39m The capabilities ["platform"] are not standard capabilities and should have an extension prefix
[35m[Appium][39m Appium v1.16.0 creating new AndroidUiautomator2Driver (v1.40.0) session
[35m[BaseDriver][39m The following capabilities were provided, but are not recognized by Appium:
[35m[BaseDriver][39m   platform
[35m[BaseDriver][39m Session created with session id: 9f27a4d0-8ba6-4030-ac43-ae45e9979fab
[35m[BaseDriver][39m Using local app 'E:\MAGANG_QA_DEXA\iFocus\iFocus_dexa\app\hotfix_Ifocus_227_bookmark_dev.apk'
[35m[ADB][39m Found 1 'build-tools' folders under 'C:\Users\City\.katalon\tools\android_sdk' (newest first):
[35m[ADB][39m     C:/Users/City/.katalon/tools/android_sdk/build-tools/29.0.2
[35m[ADB][39m Using 'adb.exe' from 'C:\Users\City\.katalon\tools\android_sdk\platform-tools\adb.exe'
[35m[AndroidDriver][39m Retrieving device list
[35m[AndroidDriver][39m Using device: 6cba90d
[35m[ADB][39m Using 'adb.exe' from 'C:\Users\City\.katalon\tools\android_sdk\platform-tools\adb.exe'
[35m[UiAutomator2][39m Relaxing hidden api policy
[35m[ADB][39m Package name: 'com.ifocus.android'
[35m[ADB][39m Main activity name: 'com.ifocus.android.MainActivity'
[35m[ADB][39m Using 'apksigner.bat' from 'C:\Users\City\.katalon\tools\android_sdk\build-tools\29.0.2\apksigner.bat'
[35m[UiAutomator2][39m Server packages are not going to be (re)installed
[35m[UiAutomator2][39m Starting UIAutomator2 server 4.5.2
[35m[UiAutomator2][39m Using UIAutomator2 server from 'C:\Users\City\AppData\Roaming\npm\node_modules\appium\node_modules\appium-uiautomator2-server\apks\appium-uiautomator2-server-v4.5.2.apk' and test from 'C:\Users\City\AppData\Roaming\npm\node_modules\appium\node_modules\appium-uiautomator2-server\apks\appium-uiautomator2-server-debug-androidTest.apk'
[35m[UiAutomator2][39m Waiting up to 30000ms for UiAutomator2 to be online...
[35m[WD Proxy][39m Got an unexpected response with status undefined: {"code":"ECONNRESET"}
[35m[WD Proxy][39m Got an unexpected response with status undefined: {"code":"ECONNRESET"}
[35m[WD Proxy][39m Got an unexpected response with status undefined: {"code":"ECONNRESET"}
[35m[WD Proxy][39m Determined the downstream protocol as 'W3C'
[35m[AndroidDriver][39m Screen already unlocked, doing nothing
[35m[UiAutomator2][39m Starting 'com.ifocus.android/com.ifocus.android.MainActivity and waiting for 'com.ifocus.android/com.ifocus.android.MainActivity'
[35m[Appium][39m New AndroidUiautomator2Driver session created successfully, session 9f27a4d0-8ba6-4030-ac43-ae45e9979fab added to master session list
[35m[HTTP][39m [37m<-- POST /wd/hub/session [39m[32m200[39m [90m18994 ms - 1241[39m
[35m[HTTP][39m [90m[39m
[35m[HTTP][39m [37m-->[39m [37mGET[39m [37m/wd/hub/session/9f27a4d0-8ba6-4030-ac43-ae45e9979fab[39m
[35m[HTTP][39m [90m{}[39m
[35m[HTTP][39m [37m<-- GET /wd/hub/session/9f27a4d0-8ba6-4030-ac43-ae45e9979fab [39m[32m200[39m [90m19 ms - 1173[39m
[35m[HTTP][39m [90m[39m
[35m[HTTP][39m [37m-->[39m [37mGET[39m [37m/wd/hub/session/9f27a4d0-8ba6-4030-ac43-ae45e9979fab[39m
[35m[HTTP][39m [90m{}[39m
[35m[HTTP][39m [37m<-- GET /wd/hub/session/9f27a4d0-8ba6-4030-ac43-ae45e9979fab [39m[32m200[39m [90m15 ms - 1173[39m
[35m[HTTP][39m [90m[39m
[35m[HTTP][39m [37m-->[39m [37mGET[39m [37m/wd/hub/status[39m
[35m[HTTP][39m [90m{}[39m
[35m[HTTP][39m [37m<-- GET /wd/hub/status [39m[32m200[39m [90m1 ms - 68[39m
[35m[HTTP][39m [90m[39m
[35m[HTTP][39m [37m-->[39m [37mPOST[39m [37m/wd/hub/session/9f27a4d0-8ba6-4030-ac43-ae45e9979fab/timeouts[39m
[35m[HTTP][39m [90m{"implicit":30000}[39m
[35m[HTTP][39m [37m<-- POST /wd/hub/session/9f27a4d0-8ba6-4030-ac43-ae45e9979fab/timeouts [39m[32m200[39m [90m4 ms - 14[39m
[35m[HTTP][39m [90m[39m
[35m[HTTP][39m [37m-->[39m [37mPOST[39m [37m/wd/hub/session/9f27a4d0-8ba6-4030-ac43-ae45e9979fab/timeouts[39m
[35m[HTTP][39m [90m{"implicit":50}[39m
[35m[HTTP][39m [37m<-- POST /wd/hub/session/9f27a4d0-8ba6-4030-ac43-ae45e9979fab/timeouts [39m[32m200[39m [90m2 ms - 14[39m
[35m[HTTP][39m [90m[39m
[35m[HTTP][39m [37m-->[39m [37mGET[39m [37m/wd/hub/session/9f27a4d0-8ba6-4030-ac43-ae45e9979fab/window/rect[39m
[35m[HTTP][39m [90m{}[39m
[35m[HTTP][39m [37m<-- GET /wd/hub/session/9f27a4d0-8ba6-4030-ac43-ae45e9979fab/window/rect [39m[32m200[39m [90m30 ms - 50[39m
[35m[HTTP][39m [90m[39m
[35m[HTTP][39m [37m-->[39m [37mPOST[39m [37m/wd/hub/session/9f27a4d0-8ba6-4030-ac43-ae45e9979fab/elements[39m
[35m[HTTP][39m [90m{"using":"-android uiautomator","value":"new UiSelector().className(\"android.widget.EditText\").instance(0)"}[39m
[35m[HTTP][39m [37m<-- POST /wd/hub/session/9f27a4d0-8ba6-4030-ac43-ae45e9979fab/elements [39m[32m200[39m [90m63 ms - 12[39m
[35m[HTTP][39m [90m[39m
[35m[HTTP][39m [37m-->[39m [37mPOST[39m [37m/wd/hub/session/9f27a4d0-8ba6-4030-ac43-ae45e9979fab/elements[39m
[35m[HTTP][39m [90m{"using":"-android uiautomator","value":"new UiSelector().className(\"android.widget.EditText\").instance(0)"}[39m
[35m[HTTP][39m [37m<-- POST /wd/hub/session/9f27a4d0-8ba6-4030-ac43-ae45e9979fab/elements [39m[32m200[39m [90m583 ms - 12[39m
[35m[HTTP][39m [90m[39m
[35m[HTTP][39m [37m-->[39m [37mPOST[39m [37m/wd/hub/session/9f27a4d0-8ba6-4030-ac43-ae45e9979fab/elements[39m
[35m[HTTP][39m [90m{"using":"-android uiautomator","value":"new UiSelector().className(\"android.widget.EditText\").instance(0)"}[39m
[35m[HTTP][39m [37m<-- POST /wd/hub/session/9f27a4d0-8ba6-4030-ac43-ae45e9979fab/elements [39m[32m200[39m [90m589 ms - 12[39m
[35m[HTTP][39m [90m[39m
[35m[HTTP][39m [37m-->[39m [37mPOST[39m [37m/wd/hub/session/9f27a4d0-8ba6-4030-ac43-ae45e9979fab/elements[39m
[35m[HTTP][39m [90m{"using":"-android uiautomator","value":"new UiSelector().className(\"android.widget.EditText\").instance(0)"}[39m
[35m[HTTP][39m [37m<-- POST /wd/hub/session/9f27a4d0-8ba6-4030-ac43-ae45e9979fab/elements [39m[32m200[39m [90m592 ms - 12[39m
[35m[HTTP][39m [90m[39m
[35m[HTTP][39m [37m-->[39m [37mPOST[39m [37m/wd/hub/session/9f27a4d0-8ba6-4030-ac43-ae45e9979fab/elements[39m
[35m[HTTP][39m [90m{"using":"-android uiautomator","value":"new UiSelector().className(\"android.widget.EditText\").instance(0)"}[39m
[35m[HTTP][39m [37m<-- POST /wd/hub/session/9f27a4d0-8ba6-4030-ac43-ae45e9979fab/elements [39m[32m200[39m [90m617 ms - 12[39m
[35m[HTTP][39m [90m[39m
[35m[HTTP][39m [37m-->[39m [37mPOST[39m [37m/wd/hub/session/9f27a4d0-8ba6-4030-ac43-ae45e9979fab/elements[39m
[35m[HTTP][39m [90m{"using":"-android uiautomator","value":"new UiSelector().className(\"android.widget.EditText\").instance(0)"}[39m
[35m[WD Proxy][39m Got an unexpected response with status undefined: {"code":"ECONNRESET"}
[35m[HTTP][39m [37m<-- POST /wd/hub/session/9f27a4d0-8ba6-4030-ac43-ae45e9979fab/elements [39m[31m500[39m [90m3575 ms - 561[39m
[35m[HTTP][39m [90m[39m
[35m[HTTP][39m [37m-->[39m [37mPOST[39m [37m/wd/hub/session/9f27a4d0-8ba6-4030-ac43-ae45e9979fab/timeouts[39m
[35m[HTTP][39m [90m{"implicit":30000}[39m
[35m[HTTP][39m [37m<-- POST /wd/hub/session/9f27a4d0-8ba6-4030-ac43-ae45e9979fab/timeouts [39m[32m200[39m [90m4 ms - 14[39m
[35m[HTTP][39m [90m[39m
[35m[HTTP][39m [37m-->[39m [37mGET[39m [37m/wd/hub/session/9f27a4d0-8ba6-4030-ac43-ae45e9979fab/context[39m
[35m[HTTP][39m [90m{}[39m
[35m[HTTP][39m [37m<-- GET /wd/hub/session/9f27a4d0-8ba6-4030-ac43-ae45e9979fab/context [39m[32m200[39m [90m2 ms - 22[39m
[35m[HTTP][39m [90m[39m
[35m[HTTP][39m [37m-->[39m [37mGET[39m [37m/wd/hub/session/9f27a4d0-8ba6-4030-ac43-ae45e9979fab/contexts[39m
[35m[HTTP][39m [90m{}[39m
[35m[AndroidDriver][39m Not checking whether webviews have active pages; use the 'ensureWebviewsHavePages' cap to turn this check on
[35m[HTTP][39m [37m<-- GET /wd/hub/session/9f27a4d0-8ba6-4030-ac43-ae45e9979fab/contexts [39m[32m200[39m [90m140 ms - 24[39m
[35m[HTTP][39m [90m[39m
[35m[HTTP][39m [37m-->[39m [37mPOST[39m [37m/wd/hub/session/9f27a4d0-8ba6-4030-ac43-ae45e9979fab/context[39m
[35m[HTTP][39m [90m{"name":"NATIVE_APP"}[39m
[35m[HTTP][39m [37m<-- POST /wd/hub/session/9f27a4d0-8ba6-4030-ac43-ae45e9979fab/context [39m[32m200[39m [90m2 ms - 14[39m
[35m[HTTP][39m [90m[39m
[35m[HTTP][39m [37m-->[39m [37mGET[39m [37m/wd/hub/session/9f27a4d0-8ba6-4030-ac43-ae45e9979fab/screenshot[39m
[35m[HTTP][39m [90m{}[39m
[35m[WD Proxy][39m Got an unexpected response with status undefined: {"code":"ECONNRESET"}
[35m[HTTP][39m [37m<-- GET /wd/hub/session/9f27a4d0-8ba6-4030-ac43-ae45e9979fab/screenshot [39m[31m500[39m [90m9 ms - 561[39m
[35m[HTTP][39m [90m[39m
[35m[HTTP][39m [37m-->[39m [37mPOST[39m [37m/wd/hub/session/9f27a4d0-8ba6-4030-ac43-ae45e9979fab/context[39m
[35m[HTTP][39m [90m{"name":"NATIVE_APP"}[39m
[35m[HTTP][39m [37m<-- POST /wd/hub/session/9f27a4d0-8ba6-4030-ac43-ae45e9979fab/context [39m[32m200[39m [90m2 ms - 14[39m
[35m[HTTP][39m [90m[39m
[35m[HTTP][39m [37m-->[39m [37mPOST[39m [37m/wd/hub/session/9f27a4d0-8ba6-4030-ac43-ae45e9979fab/timeouts[39m
[35m[HTTP][39m [90m{"implicit":50}[39m
[35m[HTTP][39m [37m<-- POST /wd/hub/session/9f27a4d0-8ba6-4030-ac43-ae45e9979fab/timeouts [39m[32m200[39m [90m3 ms - 14[39m
[35m[HTTP][39m [90m[39m
[35m[HTTP][39m [37m-->[39m [37mGET[39m [37m/wd/hub/session/9f27a4d0-8ba6-4030-ac43-ae45e9979fab/window/rect[39m
[35m[HTTP][39m [90m{}[39m
[35m[WD Proxy][39m Got an unexpected response with status undefined: {"code":"ECONNRESET"}
[35m[HTTP][39m [37m<-- GET /wd/hub/session/9f27a4d0-8ba6-4030-ac43-ae45e9979fab/window/rect [39m[31m500[39m [90m8 ms - 561[39m
[35m[HTTP][39m [90m[39m
[35m[HTTP][39m [37m-->[39m [37mPOST[39m [37m/wd/hub/session/9f27a4d0-8ba6-4030-ac43-ae45e9979fab/timeouts[39m
[35m[HTTP][39m [90m{"implicit":30000}[39m
[35m[HTTP][39m [37m<-- POST /wd/hub/session/9f27a4d0-8ba6-4030-ac43-ae45e9979fab/timeouts [39m[32m200[39m [90m2 ms - 14[39m
[35m[HTTP][39m [90m[39m
[35m[HTTP][39m [37m-->[39m [37mGET[39m [37m/wd/hub/session/9f27a4d0-8ba6-4030-ac43-ae45e9979fab/context[39m
[35m[HTTP][39m [90m{}[39m
[35m[HTTP][39m [37m<-- GET /wd/hub/session/9f27a4d0-8ba6-4030-ac43-ae45e9979fab/context [39m[32m200[39m [90m1 ms - 22[39m
[35m[HTTP][39m [90m[39m
[35m[HTTP][39m [37m-->[39m [37mGET[39m [37m/wd/hub/session/9f27a4d0-8ba6-4030-ac43-ae45e9979fab/contexts[39m
[35m[HTTP][39m [90m{}[39m
[35m[AndroidDriver][39m Not checking whether webviews have active pages; use the 'ensureWebviewsHavePages' cap to turn this check on
[35m[HTTP][39m [37m<-- GET /wd/hub/session/9f27a4d0-8ba6-4030-ac43-ae45e9979fab/contexts [39m[32m200[39m [90m132 ms - 24[39m
[35m[HTTP][39m [90m[39m
[35m[HTTP][39m [37m-->[39m [37mPOST[39m [37m/wd/hub/session/9f27a4d0-8ba6-4030-ac43-ae45e9979fab/context[39m
[35m[HTTP][39m [90m{"name":"NATIVE_APP"}[39m
[35m[HTTP][39m [37m<-- POST /wd/hub/session/9f27a4d0-8ba6-4030-ac43-ae45e9979fab/context [39m[32m200[39m [90m1 ms - 14[39m
[35m[HTTP][39m [90m[39m
[35m[HTTP][39m [37m-->[39m [37mGET[39m [37m/wd/hub/session/9f27a4d0-8ba6-4030-ac43-ae45e9979fab/screenshot[39m
[35m[HTTP][39m [90m{}[39m
[35m[WD Proxy][39m Got an unexpected response with status undefined: {"code":"ECONNRESET"}
[35m[HTTP][39m [37m<-- GET /wd/hub/session/9f27a4d0-8ba6-4030-ac43-ae45e9979fab/screenshot [39m[31m500[39m [90m7 ms - 561[39m
[35m[HTTP][39m [90m[39m
[35m[HTTP][39m [37m-->[39m [37mPOST[39m [37m/wd/hub/session/9f27a4d0-8ba6-4030-ac43-ae45e9979fab/context[39m
[35m[HTTP][39m [90m{"name":"NATIVE_APP"}[39m
[35m[HTTP][39m [37m<-- POST /wd/hub/session/9f27a4d0-8ba6-4030-ac43-ae45e9979fab/context [39m[32m200[39m [90m1 ms - 14[39m
[35m[HTTP][39m [90m[39m
[35m[HTTP][39m [37m-->[39m [37mPOST[39m [37m/wd/hub/session/9f27a4d0-8ba6-4030-ac43-ae45e9979fab/timeouts[39m
[35m[HTTP][39m [90m{"implicit":50}[39m
[35m[HTTP][39m [37m<-- POST /wd/hub/session/9f27a4d0-8ba6-4030-ac43-ae45e9979fab/timeouts [39m[32m200[39m [90m2 ms - 14[39m
[35m[HTTP][39m [90m[39m
[35m[HTTP][39m [37m-->[39m [37mGET[39m [37m/wd/hub/session/9f27a4d0-8ba6-4030-ac43-ae45e9979fab/window/rect[39m
[35m[HTTP][39m [90m{}[39m
[35m[WD Proxy][39m Got an unexpected response with status undefined: {"code":"ECONNRESET"}
[35m[HTTP][39m [37m<-- GET /wd/hub/session/9f27a4d0-8ba6-4030-ac43-ae45e9979fab/window/rect [39m[31m500[39m [90m10 ms - 561[39m
[35m[HTTP][39m [90m[39m
[35m[HTTP][39m [37m-->[39m [37mPOST[39m [37m/wd/hub/session/9f27a4d0-8ba6-4030-ac43-ae45e9979fab/timeouts[39m
[35m[HTTP][39m [90m{"implicit":30000}[39m
[35m[HTTP][39m [37m<-- POST /wd/hub/session/9f27a4d0-8ba6-4030-ac43-ae45e9979fab/timeouts [39m[32m200[39m [90m3 ms - 14[39m
[35m[HTTP][39m [90m[39m
[35m[HTTP][39m [37m-->[39m [37mGET[39m [37m/wd/hub/session/9f27a4d0-8ba6-4030-ac43-ae45e9979fab/context[39m
[35m[HTTP][39m [90m{}[39m
[35m[HTTP][39m [37m<-- GET /wd/hub/session/9f27a4d0-8ba6-4030-ac43-ae45e9979fab/context [39m[32m200[39m [90m1 ms - 22[39m
[35m[HTTP][39m [90m[39m
[35m[HTTP][39m [37m-->[39m [37mGET[39m [37m/wd/hub/session/9f27a4d0-8ba6-4030-ac43-ae45e9979fab/contexts[39m
[35m[HTTP][39m [90m{}[39m
[35m[AndroidDriver][39m Not checking whether webviews have active pages; use the 'ensureWebviewsHavePages' cap to turn this check on
[35m[HTTP][39m [37m<-- GET /wd/hub/session/9f27a4d0-8ba6-4030-ac43-ae45e9979fab/contexts [39m[32m200[39m [90m138 ms - 24[39m
[35m[HTTP][39m [90m[39m
[35m[HTTP][39m [37m-->[39m [37mPOST[39m [37m/wd/hub/session/9f27a4d0-8ba6-4030-ac43-ae45e9979fab/context[39m
[35m[HTTP][39m [90m{"name":"NATIVE_APP"}[39m
[35m[HTTP][39m [37m<-- POST /wd/hub/session/9f27a4d0-8ba6-4030-ac43-ae45e9979fab/context [39m[32m200[39m [90m1 ms - 14[39m
[35m[HTTP][39m [90m[39m
[35m[HTTP][39m [37m-->[39m [37mGET[39m [37m/wd/hub/session/9f27a4d0-8ba6-4030-ac43-ae45e9979fab/screenshot[39m
[35m[HTTP][39m [90m{}[39m
[35m[WD Proxy][39m Got an unexpected response with status undefined: {"code":"ECONNRESET"}
[35m[HTTP][39m [37m<-- GET /wd/hub/session/9f27a4d0-8ba6-4030-ac43-ae45e9979fab/screenshot [39m[31m500[39m [90m7 ms - 561[39m
[35m[HTTP][39m [90m[39m
[35m[HTTP][39m [37m-->[39m [37mPOST[39m [37m/wd/hub/session/9f27a4d0-8ba6-4030-ac43-ae45e9979fab/context[39m
[35m[HTTP][39m [90m{"name":"NATIVE_APP"}[39m
[35m[HTTP][39m [37m<-- POST /wd/hub/session/9f27a4d0-8ba6-4030-ac43-ae45e9979fab/context [39m[32m200[39m [90m3 ms - 14[39m
[35m[HTTP][39m [90m[39m
[35m[HTTP][39m [37m-->[39m [37mPOST[39m [37m/wd/hub/session/9f27a4d0-8ba6-4030-ac43-ae45e9979fab/timeouts[39m
[35m[HTTP][39m [90m{"implicit":50}[39m
[35m[HTTP][39m [37m<-- POST /wd/hub/session/9f27a4d0-8ba6-4030-ac43-ae45e9979fab/timeouts [39m[32m200[39m [90m2 ms - 14[39m
[35m[HTTP][39m [90m[39m
[35m[HTTP][39m [37m-->[39m [37mGET[39m [37m/wd/hub/session/9f27a4d0-8ba6-4030-ac43-ae45e9979fab/window/rect[39m
[35m[HTTP][39m [90m{}[39m
[35m[WD Proxy][39m Got an unexpected response with status undefined: {"code":"ECONNRESET"}
[35m[HTTP][39m [37m<-- GET /wd/hub/session/9f27a4d0-8ba6-4030-ac43-ae45e9979fab/window/rect [39m[31m500[39m [90m8 ms - 561[39m
[35m[HTTP][39m [90m[39m
[35m[HTTP][39m [37m-->[39m [37mPOST[39m [37m/wd/hub/session/9f27a4d0-8ba6-4030-ac43-ae45e9979fab/timeouts[39m
[35m[HTTP][39m [90m{"implicit":30000}[39m
[35m[HTTP][39m [37m<-- POST /wd/hub/session/9f27a4d0-8ba6-4030-ac43-ae45e9979fab/timeouts [39m[32m200[39m [90m6 ms - 14[39m
[35m[HTTP][39m [90m[39m
[35m[HTTP][39m [37m-->[39m [37mGET[39m [37m/wd/hub/session/9f27a4d0-8ba6-4030-ac43-ae45e9979fab/context[39m
[35m[HTTP][39m [90m{}[39m
[35m[HTTP][39m [37m<-- GET /wd/hub/session/9f27a4d0-8ba6-4030-ac43-ae45e9979fab/context [39m[32m200[39m [90m2 ms - 22[39m
[35m[HTTP][39m [90m[39m
[35m[HTTP][39m [37m-->[39m [37mGET[39m [37m/wd/hub/session/9f27a4d0-8ba6-4030-ac43-ae45e9979fab/contexts[39m
[35m[HTTP][39m [90m{}[39m
[35m[AndroidDriver][39m Not checking whether webviews have active pages; use the 'ensureWebviewsHavePages' cap to turn this check on
[35m[HTTP][39m [37m<-- GET /wd/hub/session/9f27a4d0-8ba6-4030-ac43-ae45e9979fab/contexts [39m[32m200[39m [90m141 ms - 24[39m
[35m[HTTP][39m [90m[39m
[35m[HTTP][39m [37m-->[39m [37mPOST[39m [37m/wd/hub/session/9f27a4d0-8ba6-4030-ac43-ae45e9979fab/context[39m
[35m[HTTP][39m [90m{"name":"NATIVE_APP"}[39m
[35m[HTTP][39m [37m<-- POST /wd/hub/session/9f27a4d0-8ba6-4030-ac43-ae45e9979fab/context [39m[32m200[39m [90m2 ms - 14[39m
[35m[HTTP][39m [90m[39m
[35m[HTTP][39m [37m-->[39m [37mGET[39m [37m/wd/hub/session/9f27a4d0-8ba6-4030-ac43-ae45e9979fab/screenshot[39m
[35m[HTTP][39m [90m{}[39m
[35m[WD Proxy][39m Got an unexpected response with status undefined: {"code":"ECONNRESET"}
[35m[HTTP][39m [37m<-- GET /wd/hub/session/9f27a4d0-8ba6-4030-ac43-ae45e9979fab/screenshot [39m[31m500[39m [90m7 ms - 561[39m
[35m[HTTP][39m [90m[39m
[35m[HTTP][39m [37m-->[39m [37mPOST[39m [37m/wd/hub/session/9f27a4d0-8ba6-4030-ac43-ae45e9979fab/context[39m
[35m[HTTP][39m [90m{"name":"NATIVE_APP"}[39m
[35m[HTTP][39m [37m<-- POST /wd/hub/session/9f27a4d0-8ba6-4030-ac43-ae45e9979fab/context [39m[32m200[39m [90m2 ms - 14[39m
[35m[HTTP][39m [90m[39m
[35m[HTTP][39m [37m-->[39m [37mPOST[39m [37m/wd/hub/session/9f27a4d0-8ba6-4030-ac43-ae45e9979fab/timeouts[39m
[35m[HTTP][39m [90m{"implicit":50}[39m
[35m[HTTP][39m [37m<-- POST /wd/hub/session/9f27a4d0-8ba6-4030-ac43-ae45e9979fab/timeouts [39m[32m200[39m [90m2 ms - 14[39m
[35m[HTTP][39m [90m[39m
[35m[HTTP][39m [37m-->[39m [37mGET[39m [37m/wd/hub/session/9f27a4d0-8ba6-4030-ac43-ae45e9979fab/window/rect[39m
[35m[HTTP][39m [90m{}[39m
[35m[WD Proxy][39m Got an unexpected response with status undefined: {"code":"ECONNRESET"}
[35m[HTTP][39m [37m<-- GET /wd/hub/session/9f27a4d0-8ba6-4030-ac43-ae45e9979fab/window/rect [39m[31m500[39m [90m10 ms - 561[39m
[35m[HTTP][39m [90m[39m
[35m[HTTP][39m [37m-->[39m [37mPOST[39m [37m/wd/hub/session/9f27a4d0-8ba6-4030-ac43-ae45e9979fab/timeouts[39m
[35m[HTTP][39m [90m{"implicit":30000}[39m
[35m[HTTP][39m [37m<-- POST /wd/hub/session/9f27a4d0-8ba6-4030-ac43-ae45e9979fab/timeouts [39m[32m200[39m [90m2 ms - 14[39m
[35m[HTTP][39m [90m[39m
[35m[HTTP][39m [37m-->[39m [37mGET[39m [37m/wd/hub/session/9f27a4d0-8ba6-4030-ac43-ae45e9979fab/context[39m
[35m[HTTP][39m [90m{}[39m
[35m[HTTP][39m [37m<-- GET /wd/hub/session/9f27a4d0-8ba6-4030-ac43-ae45e9979fab/context [39m[32m200[39m [90m2 ms - 22[39m
[35m[HTTP][39m [90m[39m
[35m[HTTP][39m [37m-->[39m [37mGET[39m [37m/wd/hub/session/9f27a4d0-8ba6-4030-ac43-ae45e9979fab/contexts[39m
[35m[HTTP][39m [90m{}[39m
[35m[AndroidDriver][39m Not checking whether webviews have active pages; use the 'ensureWebviewsHavePages' cap to turn this check on
[35m[HTTP][39m [37m<-- GET /wd/hub/session/9f27a4d0-8ba6-4030-ac43-ae45e9979fab/contexts [39m[32m200[39m [90m161 ms - 24[39m
[35m[HTTP][39m [90m[39m
[35m[HTTP][39m [37m-->[39m [37mPOST[39m [37m/wd/hub/session/9f27a4d0-8ba6-4030-ac43-ae45e9979fab/context[39m
[35m[HTTP][39m [90m{"name":"NATIVE_APP"}[39m
[35m[HTTP][39m [37m<-- POST /wd/hub/session/9f27a4d0-8ba6-4030-ac43-ae45e9979fab/context [39m[32m200[39m [90m2 ms - 14[39m
[35m[HTTP][39m [90m[39m
[35m[HTTP][39m [37m-->[39m [37mGET[39m [37m/wd/hub/session/9f27a4d0-8ba6-4030-ac43-ae45e9979fab/screenshot[39m
[35m[HTTP][39m [90m{}[39m
[35m[WD Proxy][39m Got an unexpected response with status undefined: {"code":"ECONNRESET"}
[35m[HTTP][39m [37m<-- GET /wd/hub/session/9f27a4d0-8ba6-4030-ac43-ae45e9979fab/screenshot [39m[31m500[39m [90m6 ms - 561[39m
[35m[HTTP][39m [90m[39m
[35m[HTTP][39m [37m-->[39m [37mPOST[39m [37m/wd/hub/session/9f27a4d0-8ba6-4030-ac43-ae45e9979fab/context[39m
[35m[HTTP][39m [90m{"name":"NATIVE_APP"}[39m
[35m[HTTP][39m [37m<-- POST /wd/hub/session/9f27a4d0-8ba6-4030-ac43-ae45e9979fab/context [39m[32m200[39m [90m1 ms - 14[39m
[35m[HTTP][39m [90m[39m
[35m[HTTP][39m [37m-->[39m [37mPOST[39m [37m/wd/hub/session/9f27a4d0-8ba6-4030-ac43-ae45e9979fab/timeouts[39m
[35m[HTTP][39m [90m{"implicit":50}[39m
[35m[HTTP][39m [37m<-- POST /wd/hub/session/9f27a4d0-8ba6-4030-ac43-ae45e9979fab/timeouts [39m[32m200[39m [90m2 ms - 14[39m
[35m[HTTP][39m [90m[39m
[35m[HTTP][39m [37m-->[39m [37mGET[39m [37m/wd/hub/session/9f27a4d0-8ba6-4030-ac43-ae45e9979fab/window/rect[39m
[35m[HTTP][39m [90m{}[39m
[35m[WD Proxy][39m Got an unexpected response with status undefined: {"code":"ECONNRESET"}
[35m[HTTP][39m [37m<-- GET /wd/hub/session/9f27a4d0-8ba6-4030-ac43-ae45e9979fab/window/rect [39m[31m500[39m [90m9 ms - 561[39m
[35m[HTTP][39m [90m[39m
[35m[HTTP][39m [37m-->[39m [37mPOST[39m [37m/wd/hub/session/9f27a4d0-8ba6-4030-ac43-ae45e9979fab/timeouts[39m
[35m[HTTP][39m [90m{"implicit":30000}[39m
[35m[HTTP][39m [37m<-- POST /wd/hub/session/9f27a4d0-8ba6-4030-ac43-ae45e9979fab/timeouts [39m[32m200[39m [90m2 ms - 14[39m
[35m[HTTP][39m [90m[39m
[35m[HTTP][39m [37m-->[39m [37mGET[39m [37m/wd/hub/session/9f27a4d0-8ba6-4030-ac43-ae45e9979fab/context[39m
[35m[HTTP][39m [90m{}[39m
[35m[HTTP][39m [37m<-- GET /wd/hub/session/9f27a4d0-8ba6-4030-ac43-ae45e9979fab/context [39m[32m200[39m [90m2 ms - 22[39m
[35m[HTTP][39m [90m[39m
[35m[HTTP][39m [37m-->[39m [37mGET[39m [37m/wd/hub/session/9f27a4d0-8ba6-4030-ac43-ae45e9979fab/contexts[39m
[35m[HTTP][39m [90m{}[39m
[35m[AndroidDriver][39m Not checking whether webviews have active pages; use the 'ensureWebviewsHavePages' cap to turn this check on
[35m[HTTP][39m [37m<-- GET /wd/hub/session/9f27a4d0-8ba6-4030-ac43-ae45e9979fab/contexts [39m[32m200[39m [90m160 ms - 24[39m
[35m[HTTP][39m [90m[39m
[35m[HTTP][39m [37m-->[39m [37mPOST[39m [37m/wd/hub/session/9f27a4d0-8ba6-4030-ac43-ae45e9979fab/context[39m
[35m[HTTP][39m [90m{"name":"NATIVE_APP"}[39m
[35m[HTTP][39m [37m<-- POST /wd/hub/session/9f27a4d0-8ba6-4030-ac43-ae45e9979fab/context [39m[32m200[39m [90m2 ms - 14[39m
[35m[HTTP][39m [90m[39m
[35m[HTTP][39m [37m-->[39m [37mGET[39m [37m/wd/hub/session/9f27a4d0-8ba6-4030-ac43-ae45e9979fab/screenshot[39m
[35m[HTTP][39m [90m{}[39m
[35m[WD Proxy][39m Got an unexpected response with status undefined: {"code":"ECONNRESET"}
[35m[HTTP][39m [37m<-- GET /wd/hub/session/9f27a4d0-8ba6-4030-ac43-ae45e9979fab/screenshot [39m[31m500[39m [90m12 ms - 561[39m
[35m[HTTP][39m [90m[39m
[35m[HTTP][39m [37m-->[39m [37mPOST[39m [37m/wd/hub/session/9f27a4d0-8ba6-4030-ac43-ae45e9979fab/context[39m
[35m[HTTP][39m [90m{"name":"NATIVE_APP"}[39m
[35m[HTTP][39m [37m<-- POST /wd/hub/session/9f27a4d0-8ba6-4030-ac43-ae45e9979fab/context [39m[32m200[39m [90m2 ms - 14[39m
[35m[HTTP][39m [90m[39m
[35m[HTTP][39m [37m-->[39m [37mPOST[39m [37m/wd/hub/session/9f27a4d0-8ba6-4030-ac43-ae45e9979fab/timeouts[39m
[35m[HTTP][39m [90m{"implicit":50}[39m
[35m[HTTP][39m [37m<-- POST /wd/hub/session/9f27a4d0-8ba6-4030-ac43-ae45e9979fab/timeouts [39m[32m200[39m [90m3 ms - 14[39m
[35m[HTTP][39m [90m[39m
[35m[HTTP][39m [37m-->[39m [37mGET[39m [37m/wd/hub/session/9f27a4d0-8ba6-4030-ac43-ae45e9979fab/window/rect[39m
[35m[HTTP][39m [90m{}[39m
[35m[WD Proxy][39m Got an unexpected response with status undefined: {"code":"ECONNRESET"}
[35m[HTTP][39m [37m<-- GET /wd/hub/session/9f27a4d0-8ba6-4030-ac43-ae45e9979fab/window/rect [39m[31m500[39m [90m28 ms - 561[39m
[35m[HTTP][39m [90m[39m
[35m[HTTP][39m [37m-->[39m [37mPOST[39m [37m/wd/hub/session/9f27a4d0-8ba6-4030-ac43-ae45e9979fab/timeouts[39m
[35m[HTTP][39m [90m{"implicit":30000}[39m
[35m[HTTP][39m [37m<-- POST /wd/hub/session/9f27a4d0-8ba6-4030-ac43-ae45e9979fab/timeouts [39m[32m200[39m [90m2 ms - 14[39m
[35m[HTTP][39m [90m[39m
[35m[HTTP][39m [37m-->[39m [37mGET[39m [37m/wd/hub/session/9f27a4d0-8ba6-4030-ac43-ae45e9979fab/context[39m
[35m[HTTP][39m [90m{}[39m
[35m[HTTP][39m [37m<-- GET /wd/hub/session/9f27a4d0-8ba6-4030-ac43-ae45e9979fab/context [39m[32m200[39m [90m1 ms - 22[39m
[35m[HTTP][39m [90m[39m
[35m[HTTP][39m [37m-->[39m [37mGET[39m [37m/wd/hub/session/9f27a4d0-8ba6-4030-ac43-ae45e9979fab/contexts[39m
[35m[HTTP][39m [90m{}[39m
[35m[HTTP][39m [37m<-- GET /wd/hub/session/9f27a4d0-8ba6-4030-ac43-ae45e9979fab/contexts [39m[32m-[39m [90m- ms - -[39m
[35m[HTTP][39m [90m[39m
[35m[AndroidDriver][39m Not checking whether webviews have active pages; use the 'ensureWebviewsHavePages' cap to turn this check on
